site,links,visited
purl.org,1,0
www.facebook.com,1,0
www.whitehouse.gov,52,1
www.myspace.com,1,0
www.youtube.com,1,0
www.twitter.com,1,0
www.vimeo.com,1,0
commontag.org,1,0
www.w3.org,2,0
itunes.apple.com,1,0
www.flickr.com,1,0
